11 Usare dplyr – Analisi esplorativa dei dati (EDA) in psicologia
…
In questo esempio, utilizziamo mutate() per creare una nuova colonna rem_prop che rappresenta la percentuale di sonno REM sul totale del sonno. Successivamente, select() viene utilizzato per scegliere solo alcune colonne del dataset, e infine desc(rem_prop) ordina i valori di rem_prop in ordine decrescente, dal valore maggiore a quello minore.

Per cambiare il nome di una colonna possiamo usare rename(). Inoltre, possiamo cambiare l’ordine delle variabili con relocate().

msleep2 |>
  rename(rem_perc = rem_prop) |>
  relocate(rem_perc, .before = name)
#> # A tibble: 83 × 4
#>    rem_perc name                   vore    sleep_total
#>       <dbl> <chr>                  <chr>         <dbl>
#>  1     34.7 European hedgehog      omni           10.1
#>  2     34.0 Thick-tailed opposum   carni          19.4
#>  3     33.7 Giant armadillo        insecti        18.1
#>  4     29.2 Tree shrew             omni            8.9
#>  5     28.7 Dog                    carni          10.1
#>  6     27.2 North American Opossum omni           18  
#>  7     26.4 Pig                    omni            9.1
#>  8     26.2 Desert hedgehog        <NA>           10.3
#>  9     25.6 Domestic cat           carni          12.5
#> 10     25   Eastern american mole  insecti         8.4
#> # ℹ 73 more rows
…
